module geoservicejsonrpc

go 1.19

require (
	github.com/dgrijalva/jwt-go v3.2.0+incompatible
	github.com/ekomobile/dadata/v2 v2.9.0
	github.com/go-chi/chi/v5 v5.0.11
	github.com/go-chi/jwtauth v1.2.0
	github.com/lib/pq v1.10.9
	github.com/prometheus/client_golang v1.18.0
	github.com/redis/go-redis/v9 v9.4.0
	github.com/stretchr/testify v1.8.4
	golang.org/x/crypto v0.18.0
	golang.org/x/sync v0.6.0
)

require (
	github.com/beorn7/perks v1.0.1 // indirect
	github.com/cespare/xxhash/v2 v2.2.0 // indirect
	github.com/davecgh/go-spew v1.1.1 // indirect
	github.com/decred/dcrd/dcrec/secp256k1/v4 v4.2.0 // indirect
	github.com/dgryski/go-rendezvous v0.0.0-20200823014737-9f7001d12a5f // indirect
	github.com/goccy/go-json v0.10.2 // indirect
	github.com/kr/text v0.2.0 // indirect
	github.com/lestrrat-go/backoff/v2 v2.0.8 // indirect
	github.com/lestrrat-go/blackmagic v1.0.2 // indirect
	github.com/lestrrat-go/httpcc v1.0.1 // indirect
	github.com/lestrrat-go/iter v1.0.2 // indirect
	github.com/lestrrat-go/jwx v1.2.28 // indirect
	github.com/lestrrat-go/option v1.0.1 // indirect
	github.com/matttproud/golang_protobuf_extensions/v2 v2.0.0 // indirect
	github.com/pkg/errors v0.9.1 // indirect
	github.com/pmezard/go-difflib v1.0.0 // indirect
	github.com/prometheus/client_model v0.5.0 // indirect
	github.com/prometheus/common v0.45.0 // indirect
	github.com/prometheus/procfs v0.12.0 // indirect
	github.com/rogpeppe/go-internal v1.12.0 // indirect
	golang.org/x/sys v0.16.0 // indirect
	google.golang.org/protobuf v1.31.0 // indirect
	gopkg.in/yaml.v3 v3.0.1 // indirect
)
